{
  "111": [
    {
      "id": 1,
      "content": "HTML là chữ viết tắt của HyperText Markup Language, dịch ra tiếng Việt có nghĩa là ngôn ngữ đánh dấu siêu văn bản. Nó dùng để định dạng bố cục, các thuộc tính liên quan đến cách hiển thị của một đoạn text và được hiển thị trên một chương trình đặc biệc, ta gọi là trình duyệt browser.",
      "question": "HTML là viết tắt của...",
      "answers": [
        {
          "key": "A",
          "name": "Hyperlinks and Text Markup Language"
        },
        {
          "key": "B",
          "name": "Home Tool Markup Language"
        },
        {
          "key": "C",
          "name": "Hyper Text Markup Language"
        }
      ],
      "result": "A"
    },
    {
      "id": 2,
      "content": "Img là chữ viết tắt của image, nó là một thẻ HTML được dùng để tạo hình ảnh trên các trang web. 100% các trang web đều có sử dụng thẻ này.",
      "question": "Ai là người đưa ra các tiêu chuẩn Web?",
      "answers": [
        {
          "key": "A",
          "name": "Tổ chức World Wide Web Consortium (W3C)"
        },
        {
          "key": "B",
          "name": "Apple"
        },
        {
          "key": "C",
          "name": "Google"
        }
      ],
      "result": "A"
    },
    {
      "id": 3,
      "content": "Thẻ ul sẽ định nghia một danh sách không định rõ thứ tự. Sử dụng kết hợp thẻ ul với thẻ li để tạo danh sách không đánh số. Nếu bạn muốn tạo danh sách đánh số thì phải sử dụng thẻ OL.",
      "question": "Chọn thẻ HTML đúng nhất cho định dạng tiêu đề lớn nhất?",
      "answers": [
        {
          "key": "A",
          "name": "<h6>"
        },
        {
          "key": "B",
          "name": "<h1>"
        },
        {
          "key": "C",
          "name": "<head>"
        }
      ],
      "result": "B"
    }
  ],
  "222": [
    {
      "id": 1,
      "content": "CSS là chữ viết tắt của cụm từ tiếng Anh Cascading Style Sheet, dịch ra tiếng Việt thì thực sự mình cũng không thể dịch cho chuẩn được ",
      "question": "CSS là viết tắt của ?",
      "answers": [
        {
          "key": "A",
          "name": "Creative Style Sheets"
        },
        {
          "key": "B",
          "name": "Computer Style Sheets"
        },
        {
          "key": "C",
          "name": "Cascading Style Sheets"
        }
      ],
      "result": "C"
    },
    {
      "id": 2,
      "content": "CSS Selector đóng vai trò rất quan trọng khi các bạn code layout cho website, tuy nhiên về các loại selector thì hơi nhiều nên trong bài này tôi chỉ trình bày một số selector thông dụng và căn bản nhất để các bạn dễ theo dõi, các vấn đề nâng cao mình sẽ trình bày ở một bài khác.",
      "question": "Muốn liên kết file HTML với file định nghĩa CSS ta dùng dòng nào sau đây?",
      "answers": [
        {
          "key": "A",
          "name": "<style src=”mystyle.css”>"
        },
        {
          "key": "B",
          "name": "<stylesheet>mystyle.css</stylesheet>"
        },
        {
          "key": "C",
          "name": "<link rel=”stylesheet” type=”text/css” href=”mystyle.css”>"
        }
      ],
      "result": "C"
    },
    {
      "id": 3,
      "content": "Để thiết lập màu nền cho background thì ta sử dụng thuộc tính CSS backgroud-color hoặc background với giá trị của nó là màu sắc của background. Bạn có thể sử dụng mã màu hoặc tên màu bằng tiếng anh đều được.",
      "question": " Thuộc tính nào định nghĩa CSS ngay trong 1 tag ?",
      "answers": [
        {
          "key": "A",
          "name": "font"
        },
        {
          "key": "B",
          "name": "class"
        },
        {
          "key": "C",
          "name": "style"
        }
      ],
      "result": "C"
    },
    {
      "id": 4,
      "content": "Thuộc tính Float trong CSS đóng vai trò rất quan trọng trong việc xây dựng chia bố cục HTML của một trang web. Như các bạn biết, hiện nay người ta sử dụng thẻ div và các thẻ HTML5 như thẻ header, footer, article để chia layout.",
      "question": "Đặt dòng liên kết với file CSS ở vùng nào trong file HTML?",
      "answers": [
        {
          "key": "A",
          "name": "Trong thẻ <body>"
        },
        {
          "key": "B",
          "name": "Trong thẻ <head>"
        },
        {
          "key": "C",
          "name": "Ở cuối file HTML"
        }
      ],
      "result": "B"
    },
    {
      "id": 5,
      "content": "CSS3 ra mắt 2 giá trị mới cho thuộc tính display là flex và inline-flex, giúp sắp xếp, bố cục các thành phần khối (block) một cách dễ dàng, linh hoạt hơn trước.",
      "question": "Đâu là những tag dành cho việc tạo bảng?",
      "answers": [
        {
          "key": "A",
          "name": "table><tr><td>"
        },
        {
          "key": "B",
          "name": "<thead><body><tr>"
        },
        {
          "key": "C",
          "name": "<table><head><tfoot>"
        }
      ],
      "result": "A"
    },
    {
      "id": 6,
      "content": "Trong CSS có hai thuộc tính dùng để bổ sung thành phần vào đằng trước và đằng sau thẻ HTML đó là thuộc tính after và before, hai thuộc tính này được dùng rất nhiều khi xây dựng layout website. Không những vậy mà các Framework CSS hay FontAwesome cũng sử dụng hai thuộc tính này để tạo icon.",
      "question": "Đâu là tag tạo ra 1 danh sách đứng đầu bằng số ?",
      "answers": [
        {
          "key": "A",
          "name": "<ul>"
        },
        {
          "key": "B",
          "name": "<list>"
        },
        {
          "key": "C",
          "name": "<ol>"
        }
      ],
      "result": "A"
    }
  ],
  "333": [
    {
      "id": 1,
      "content": "Javascript là một ngôn ngữ lập trình kịch bản dựa vào đối tượng phát triển có sẵn hoặc tự định nghĩa. Javascript được sử dụng rộng rãi trong các ứng dụng Website. Javascript được hỗ trợ hầu như trên tất cả các trình duyệt như Firefox, Chrome, ... trên máy tính lẫn điện thoại.",
      "question": "Trong Javascript sự kiện OnUnload thực hiện khi nào?",
      "answers": [
        {
          "key": "A",
          "name": "Khi bắt đầu chương trình chạy"
        },
        {
          "key": "B",
          "name": "Khi click chuột"
        },
        {
          "key": "C",
          "name": "Khi kết thúc một chương trình"
        }
      ],
      "result": "B"
    },
    {
      "id": 2,
      "content": "Chúng ta có ba cách khai báo biến. Thứ nhất là dùng từ khóa var, thứ hai là dùng từ khóa const, và cuối cùng là từ khóa let. Tùy vào từng trường hợp mà chọn cách khai báo cho phù hợp.",
      "question": "Thẻ <input type='text'> dùng để làm gì?",
      "answers": [
        {
          "key": "A",
          "name": "Tạo một ô text để nhập dữ liệu 1 dòng"
        },
        {
          "key": "B",
          "name": "Tạo một ô password"
        },
        {
          "key": "C",
          "name": "Tạo một  textbox cho phép nhập liệu nhiều dòng"
        }
      ],
      "result": "A"
    },
    {
      "id": 3,
      "content": "Tính năng hiển thị popup để lấy thông tin người dùng hoặc hiển thị popup thông báo rất là phổ biến. Tuy nhiên, thực tế thì các website lại rất ít khi sử dụng các hàm này bởi giao diện hiện thị của nó rất là củ chuối. Thay vào đó thì họ lập trình viên sẽ sử dụng một thư viện jQuery popup khác chuyên nghiệp hơn.",
      "question": "Javascript là ngôn ngữ thông dịch hay biên dịch ?",
      "answers": [
        {
          "key": "A",
          "name": "Thông dịch"
        },
        {
          "key": "B",
          "name": "Biên dịch"
        },
        {
          "key": "C",
          "name": "Cả hai dạng"
        }
      ],
      "result": "B"
    },
    {
      "id": 4,
      "content": "HTML là chữ viết tắt của HyperText Markup Language, dịch ra tiếng Việt có nghĩa là ngôn ngữ đánh dấu siêu văn bản. Nó dùng để định dạng bố cục, các thuộc tính liên quan đến cách hiển thị của một đoạn text và được hiển thị trên một chương trình đặc biệc, ta gọi là trình duyệt browser.",
      "question": "Phương thức viết chương trình của Javascript như thế nào?",
      "answers": [
        {
          "key": "A",
          "name": "Viết riêng một trang"
        },
        {
          "key": "B",
          "name": "Viết chung với HTML"
        },
        {
          "key": "C",
          "name": "Cả hai dạng"
        }
      ],
      "result": "C"
    },
    {
      "id": 5,
      "content": "Img là chữ viết tắt của image, nó là một thẻ HTML được dùng để tạo hình ảnh trên các trang web. 100% các trang web đều có sử dụng thẻ này.",
      "question": "JavaScript được bắt đầu bằng?",
      "answers": [
        {
          "key": "A",
          "name": "<scritp> …</script>"
        },
        {
          "key": "B",
          "name": "<Javascript> …<Javascript>"
        },
        {
          "key": "C",
          "name": "Tất cả các dạng trên."
        }
      ],
      "result": "A"
    },
    {
      "id": 6,
      "content": "Thẻ ul sẽ định nghia một danh sách không định rõ thứ tự. Sử dụng kết hợp thẻ ul với thẻ li để tạo danh sách không đánh số. Nếu bạn muốn tạo danh sách đánh số thì phải sử dụng thẻ OL.",
      "question": "Trong Javascript hàm parseInt() dùng để làm gì?",
      "answers": [
        {
          "key": "A",
          "name": "Chuyển một chuỗi thành số"
        },
        {
          "key": "B",
          "name": "Chuyển một chuỗi thành số nguyên"
        },
        {
          "key": "C",
          "name": "Chuyển một chuỗi thành số thực"
        }
      ],
      "result": "B"
    }
  ],
  "account": [
    {
      "id": 1,
      "username": "admin01",
      "password": "123123",
      "role": "admin",
      "id_token": "idtokenadmin",
      "firstName": "Quang",
      "lastName": "Duy"
    },
    {
      "id": 2,
      "username": "user01",
      "password": "123456",
      "role": "user",
      "id_token": "idtokenuser",
      "firstName": "Quang",
      "lastName": "Lợi"
    },
    {
      "username": null,
      "firstName": null,
      "lastName": null,
      "password": null,
      "role": "user",
      "id_token": "jwt demo",
      "id": 3
    },
    {
      "username": null,
      "firstName": null,
      "lastName": null,
      "password": null,
      "role": "user",
      "id_token": "jwt demo",
      "id": 4
    }
  ],
  "courses": [
    {
      "id": 111,
      "name": "HTML Basic",
      "price": 299000,
      "desc": "HTML is the standard markup language for Web pages, With HTML you can create your own Website. HTML is easy to learn - You will enjoy it!",
      "img": "html.jpg"
    },
    {
      "id": 222,
      "name": "CSS Basic",
      "price": 490000,
      "desc": "CSS is the language we use to style an HTML document, CSS describes how HTML elements should be displayed. This tutorial will teach you CSS from basic to advanced.",
      "img": "css.jpg"
    },
    {
      "id": 333,
      "name": "Javascript Basic",
      "price": 799000,
      "desc": "JavaScript is the world's most popular programming language. JavaScript is the programming language of the Web. JavaScript is easy to learn. This tutorial will teach you JavaScript from basic to advanced.",
      "img": "js.jpg"
    },
    {
      "id": 444,
      "name": "SQL Basic",
      "price": 1290000,
      "desc": "SQL is a standard language for storing, manipulating and retrieving data in databases. Our SQL tutorial will teach you how to use SQL in: MySQL, SQL Server, MS Access, Oracle, Sybase, Informix, Postgres, and other database systems.",
      "img": "sql.png"
    },
    {
      "id": 555,
      "name": "PYTHON Basic",
      "price": 139000,
      "desc": "Python is a popular programming language. Python can be used on a server to create web applications.",
      "img": "python.jpg"
    },
    {
      "id": 666,
      "name": "PHP Basic",
      "price": 999000,
      "desc": "PHP is a server scripting language, and a powerful tool for making dynamic and interactive Web pages. PHP is a widely-used, free, and efficient alternative to competitors such as Microsoft's ASP.",
      "img": "php1.jpg"
    }
  ],
  "myCourse": [
    {
      "id": 111,
      "name": "HTML Basic",
      "desc": "HTML is the standard markup language for Web pages, With HTML you can create your own Website. HTML is easy to learn - You will enjoy it!",
      "img": "html.jpg"
    },
    {
      "id": 333,
      "name": "Javascript Basic",
      "desc": "JavaScript is the world's most popular programming language. JavaScript is the programming language of the Web. JavaScript is easy to learn. This tutorial will teach you JavaScript from basic to advanced.",
      "img": "js.jpg"
    }
  ],
  "lesson": [
    {
      "id": 111,
      "data": [
        {
          "id": "1",
          "label": "Cấu trúc HTML",
          "active": false,
          "numberLesson": 1
        },
        {
          "id": "2",
          "label": "Thẻ img trong HTML",
          "active": false,
          "numberLesson": 2
        },
        {
          "id": "3",
          "label": "ul - li",
          "active": false,
          "numberLesson": 3
        },
        {
          "id": "4",
          "label": "Button",
          "active": false,
          "numberLesson": 4
        }
      ]
    },
    {
      "id": 222,
      "data": [
        {
          "id": "1",
          "label": "CSS Giới thiệu",
          "active": false,
          "numberLesson": 1
        },
        {
          "id": "2",
          "label": "Selector CSS",
          "active": false,
          "numberLesson": 2
        },
        {
          "id": "3",
          "label": "Background CSS",
          "active": false,
          "numberLesson": 3
        },
        {
          "id": "4",
          "label": "Thuộc tính Float",
          "active": false,
          "numberLesson": 4
        },
        {
          "id": "5",
          "lessonName": "Display Flexbox",
          "label": false,
          "numberLesson": 5
        },
        {
          "id": "6",
          "label": "After và Before trong CSS",
          "active": false,
          "numberLesson": 6
        }
      ]
    },
    {
      "id": 333,
      "data": [
        {
          "id": "1",
          "label": "Javascript là gì ?",
          "active": false,
          "numberLesson": 1
        },
        {
          "id": "2",
          "label": "Cách khai báo biến trong JS",
          "active": false,
          "numberLesson": 2
        },
        {
          "id": "3",
          "label": "Hàm alert() - confirm() - prompt() trong JS",
          "active": false,
          "numberLesson": 3
        },
        {
          "id": "4",
          "label": "Các toán tử trong JS",
          "active": false,
          "numberLesson": 4
        },
        {
          "id": "5",
          "lessonName": "Điều kiện IF-ELSE",
          "label": false,
          "numberLesson": 5
        },
        {
          "id": "6",
          "label": "Switch Case JS",
          "active": false,
          "numberLesson": 6
        },
        {
          "id": "7",
          "label": "Function JS",
          "active": false,
          "numberLesson": 7
        }
      ]
    }
  ]
}